900 700
5
0.0,0.0 492,0.0 492.0,244.0 0.0,244.0
0.0,0.0 320.0,0.0 320.0,320.0 0.0,320.0
0.0,0.0 390.0,0.0 390.0,320.0 0.0,320.0
0.0,0.0 620.0,0.0 620.0,620.0 0.0,620.0
0.0,0.0 120.0,0.0 120.0,320.0 0.0,120.0